checker/simulation/qsim/checker.msim.vcd
$comment
	File created using the following command:
		vcd file checker.msim.vcd -direction
$end
$date
	Mon Dec 07 18:54:19 2020
$end
$version
	ModelSim Version 2020.1
$end
$timescale
	1ps
$end

$scope module checker_vhd_vec_tst $end
$var wire 1 ! checker_flag $end
$var wire 1 " clk $end
$var wire 1 # data_in $end
$var wire 1 $ rem_out [7] $end
$var wire 1 % rem_out [6] $end
$var wire 1 & rem_out [5] $end
$var wire 1 ' rem_out [4] $end
$var wire 1 ( rem_out [3] $end
$var wire 1 ) rem_out [2] $end
$var wire 1 * rem_out [1] $end
$var wire 1 + rem_out [0] $end

$scope module i1 $end
$var wire 1 , gnd $end
$var wire 1 - vcc $end
$var wire 1 . unknown $end
$var wire 1 / devoe $end
$var wire 1 0 devclrn $end
$var wire 1 1 devpor $end
$var wire 1 2 ww_devoe $end
$var wire 1 3 ww_devclrn $end
$var wire 1 4 ww_devpor $end
$var wire 1 5 ww_clk $end
$var wire 1 6 ww_data_in $end
$var wire 1 7 ww_checker_flag $end
$var wire 1 8 ww_rem_out [7] $end
$var wire 1 9 ww_rem_out [6] $end
$var wire 1 : ww_rem_out [5] $end
$var wire 1 ; ww_rem_out [4] $end
$var wire 1 < ww_rem_out [3] $end
$var wire 1 = ww_rem_out [2] $end
$var wire 1 > ww_rem_out [1] $end
$var wire 1 ? ww_rem_out [0] $end
$var wire 1 @ \clk~inputclkctrl_INCLK_bus\ [3] $end
$var wire 1 A \clk~inputclkctrl_INCLK_bus\ [2] $end
$var wire 1 B \clk~inputclkctrl_INCLK_bus\ [1] $end
$var wire 1 C \clk~inputclkctrl_INCLK_bus\ [0] $end
$var wire 1 D \checker_flag~output_o\ $end
$var wire 1 E \rem_out[0]~output_o\ $end
$var wire 1 F \rem_out[1]~output_o\ $end
$var wire 1 G \rem_out[2]~output_o\ $end
$var wire 1 H \rem_out[3]~output_o\ $end
$var wire 1 I \rem_out[4]~output_o\ $end
$var wire 1 J \rem_out[5]~output_o\ $end
$var wire 1 K \rem_out[6]~output_o\ $end
$var wire 1 L \rem_out[7]~output_o\ $end
$var wire 1 M \clk~input_o\ $end
$var wire 1 N \clk~inputclkctrl_outclk\ $end
$var wire 1 O \cR1|s_clkCounter[0]~12_combout\ $end
$var wire 1 P \cR1|s_clkCounter[1]~4_combout\ $end
$var wire 1 Q \cR1|s_clkCounter[1]~5\ $end
$var wire 1 R \cR1|s_clkCounter[2]~6_combout\ $end
$var wire 1 S \cR1|s_clkCounter[2]~7\ $end
$var wire 1 T \cR1|s_clkCounter[3]~8_combout\ $end
$var wire 1 U \cR1|s_clkCounter[3]~9\ $end
$var wire 1 V \cR1|s_clkCounter[4]~10_combout\ $end
$var wire 1 W \cR1|flag~2_combout\ $end
$var wire 1 X \xor5|out0~0_combout\ $end
$var wire 1 Y \flipFlop6|Q~q\ $end
$var wire 1 Z \flipFlop7|Q~q\ $end
$var wire 1 [ \flipFlop8|Q~feeder_combout\ $end
$var wire 1 \ \flipFlop8|Q~q\ $end
$var wire 1 ] \data_in~input_o\ $end
$var wire 1 ^ \xor1|out0~0_combout\ $end
$var wire 1 _ \flipFlop1|Q~q\ $end
$var wire 1 ` \xor2|out0~0_combout\ $end
$var wire 1 a \flipFlop2|Q~q\ $end
$var wire 1 b \xor3|out0~0_combout\ $end
$var wire 1 c \flipFlop3|Q~q\ $end
$var wire 1 d \xor4|out0~0_combout\ $end
$var wire 1 e \flipFlop4|Q~q\ $end
$var wire 1 f \flipFlop5|Q~q\ $end
$var wire 1 g \cR1|flag~1_combout\ $end
$var wire 1 h \cR1|flag~0_combout\ $end
$var wire 1 i \cR1|flag~3_combout\ $end
$var wire 1 j \cR1|flag~4_combout\ $end
$var wire 1 k \cR1|flag~q\ $end
$var wire 1 l \cR1|s_clkCounter\ [4] $end
$var wire 1 m \cR1|s_clkCounter\ [3] $end
$var wire 1 n \cR1|s_clkCounter\ [2] $end
$var wire 1 o \cR1|s_clkCounter\ [1] $end
$var wire 1 p \cR1|s_clkCounter\ [0] $end
$upscope $end
$upscope $end
$enddefinitions $end
#0
$dumpvars
0!
0"
1#
0,
1-
x.
1/
10
11
12
13
14
05
16
07
0D
0E
0F
0G
0H
0I
0J
0K
0L
0M
0N
1O
0P
0Q
0R
1S
0T
0U
0V
0W
0X
0Y
0Z
0[
0\
1]
1^
0_
0`
0a
0b
0c
0d
0e
0f
1g
1h
0i
0j
0k
0$
0%
0&
0'
0(
0)
0*
0+
08
09
0:
0;
0<
0=
0>
0?
0l
0m
0n
0o
0p
1@
1A
1B
0C
$end
#5000
1"
15
1M
1C
1N
1p
1_
1`
0h
0O
1P
1E
1?
1+
#10000
0"
0#
05
06
0]
0M
0C
0^
0N
#15000
1"
15
1M
1C
1N
0p
1o
0_
1a
1b
0`
1O
1F
0E
1>
0?
0+
1*
#20000
0"
1#
05
16
1]
0M
0C
1^
0N
#25000
1"
15
1M
1C
1N
1p
1_
0a
1c
1d
0b
1`
0O
0P
1Q
1R
1G
0F
1E
1=
0>
1?
1+
0*
1)
#30000
0"
0#
05
06
0]
0M
0C
0^
0N
#35000
1"
15
1M
1C
1N
0p
0o
1n
0_
1a
0c
1e
0d
1b
0`
0R
0S
1O
0Q
1R
1S
1T
1H
0G
1F
0E
0T
1<
0=
1>
0?
0+
1*
0)
1(
#40000
0"
1#
05
16
1]
0M
0C
1^
0N
#45000
1"
15
1M
1C
1N
1p
1_
0a
1c
0e
1f
1X
0g
1d
0b
1`
0O
1P
1I
0H
1G
0F
1E
1;
0<
1=
0>
1?
1+
0*
1)
0(
1'
#50000
0"
0#
05
06
0]
0M
0C
0^
0N
#55000
1"
15
1M
1C
1N
0p
1o
1Y
0_
1a
0c
1e
0f
0X
0d
1b
0`
1O
0I
1H
0G
1F
0E
1J
0;
1<
0=
1>
0?
1:
0+
1*
0)
1(
0'
1&
#60000
0"
1#
05
16
1]
0M
0C
1^
0N
#65000
1"
15
1M
1C
1N
1p
0Y
1Z
1_
0a
1c
0e
1f
1X
1d
0b
1`
1[
0O
0P
1Q
0R
0S
1I
0H
1G
0F
1E
1K
0J
1T
1;
0<
1=
0>
1?
19
0:
1+
0*
1)
0(
1'
0&
1%
#70000
0"
0#
05
06
0]
0M
0C
0^
0N
#75000
1"
15
1M
1C
1N
0p
0o
0n
1m
1Y
0Z
1\
0_
1a
0c
1e
0f
1^
0[
0T
1U
1R
1S
1O
0Q
1W
0R
1T
0U
1V
0I
1H
0G
1F
0E
1L
0K
1J
0V
0;
1<
0=
1>
0?
18
09
1:
0+
1*
0)
1(
0'
1&
0%
1$
#80000
0"
1#
05
16
1]
0M
0C
0^
0N
#85000
1"
15
1M
1C
1N
1p
1Z
0\
1f
1^
0`
1b
0d
1[
0O
1P
0W
1I
0L
1K
1;
08
19
1'
1%
0$
#90000
0"
0#
05
06
0]
0M
0C
0^
0N
#95000
1"
15
1M
1C
1N
0p
1o
1\
0a
1c
0e
0X
1^
1`
1O
0H
1G
0F
1L
0<
1=
0>
18
0*
1)
0(
1$
#100000
0"
1#
05
16
1]
0M
0C
0^
0N
#105000
1"
15
1M
1C
1N
1p
0Y
1a
0f
1X
0b
0O
0P
1Q
1R
0I
1F
0J
0;
1>
0:
1*
0'
0&
#110000
0"
0#
05
06
0]
0M
0C
1^
0N
#115000
1"
15
1M
1C
1N
0p
0o
1n
1Y
0Z
1_
0c
1d
0`
0[
0R
0S
1O
0Q
1R
1S
0T
1U
0G
1E
0K
1J
1V
1T
0U
0=
1?
09
1:
1+
0)
1&
0%
0V
#120000
0"
1#
05
16
1]
0M
0C
0^
0N
#125000
1"
15
1M
1C
1N
1p
1Z
0\
0_
0a
1e
0X
1^
0d
1[
0O
1P
1H
0F
0E
0L
1K
1<
0>
0?
08
19
0+
0*
1(
1%
0$
#130000
0"
0#
05
06
0]
0M
0C
0^
0N
#135000
1"
15
1M
1C
1N
0p
1o
0Y
1\
0e
1f
1h
1^
1`
1b
1d
1O
1I
0H
1L
0J
1;
0<
18
0:
0(
1'
0&
1$
#140000
0"
1#
05
16
1]
0M
0C
0^
0N
#145000
1"
15
1M
1C
1N
1p
0Z
1a
1c
1e
0f
1X
0d
0b
0h
0[
0O
0P
1Q
0R
0S
0I
1H
1G
1F
0K
0T
1U
0;
1<
1=
1>
09
1*
1)
1(
0'
0%
1V
#150000
0"
0#
05
06
0]
0M
0C
1^
0N
#155000
1"
15
1M
1C
1N
0p
0o
0n
0m
1l
1Y
0\
1_
0c
0e
1f
0^
1b
0V
1T
0U
1R
1S
1O
0Q
0R
0T
1V
1I
0H
0G
1E
0L
1J
1;
0<
0=
1?
08
1:
1+
0)
0(
1'
1&
0$
#160000
0"
1#
05
16
1]
0M
0C
1^
0N
#165000
1"
15
1M
1C
1N
1p
1Z
1c
0f
0X
1d
1[
0O
1P
0I
1G
1K
0;
1=
19
1)
0'
1%
#170000
0"
0#
05
06
0]
0M
0C
0^
0N
#175000
1"
15
1M
1C
1N
0p
1o
0Y
1\
0_
1e
1X
1^
0b
0d
1O
1H
0E
1L
0J
1<
0?
18
0:
0+
1(
0&
1$
#180000
0"
1#
05
16
1]
0M
0C
0^
0N
#185000
1"
15
1M
1C
1N
1p
1Y
0Z
0c
0e
1f
0X
1d
0[
0O
0P
1Q
1R
1I
0H
0G
0K
1J
1;
0<
0=
09
1:
0)
0(
1'
1&
0%
#190000
0"
0#
05
06
0]
0M
0C
1^
0N
#195000
1"
15
1M
1C
1N
0p
0o
1n
0Y
1Z
0\
1_
1e
0f
0^
1b
0d
1[
0R
0S
1O
0Q
1R
1S
1T
0I
1H
1E
0L
1K
0J
0T
0;
1<
1?
08
19
0:
1+
1(
0'
0&
1%
0$
#200000
0"
1#
05
16
1]
0M
0C
1^
0N
#205000
1"
15
1M
1C
1N
1p
0Z
1\
1c
0e
1f
0^
0`
0b
0[
0O
1P
1I
0H
1G
1L
0K
1;
0<
1=
18
09
1)
0(
1'
0%
1$
#210000
0"
05
0M
0C
0N
#215000
1"
15
1M
1C
1N
0p
1o
0\
0_
0a
0c
0f
1h
1^
1g
1O
0I
0G
0F
0E
0L
0;
0=
0>
0?
08
0+
0*
0)
0'
0$
#220000
0"
0#
05
06
0]
0M
0C
0^
0N
#225000
1"
15
1M
1C
1N
1p
0O
0P
1Q
0R
0S
1T
#230000
0"
05
0M
0C
0N
#235000
1"
15
1M
1C
1N
0p
0o
0n
1m
0T
1U
1R
1S
1O
0Q
1W
1i
0R
1T
0U
0V
1V
1j
#240000
0"
05
0M
0C
0N
#245000
1"
15
1M
1C
1N
1p
1k
0O
1P
0W
0i
1D
17
1!
#250000
0"
05
0M
0C
0N
#255000
1"
15
1M
1C
1N
0p
1o
1O
#260000
0"
05
0M
0C
0N
#265000
1"
15
1M
1C
1N
1p
0O
0P
1Q
1R
#270000
0"
05
0M
0C
0N
#275000
1"
15
1M
1C
1N
0p
0o
1n
0R
0S
1O
0Q
1R
1S
0T
1U
0V
1T
0U
1V
#280000
0"
05
0M
0C
0N
#285000
1"
15
1M
1C
1N
1p
0O
1P
#290000
0"
05
0M
0C
0N
#295000
1"
15
1M
1C
1N
0p
1o
1O
#300000
0"
05
0M
0C
0N
#305000
1"
15
1M
1C
1N
1p
0O
0P
1Q
0R
0S
0T
1U
0V
#310000
0"
05
0M
0C
0N
#315000
1"
15
1M
1C
1N
0p
0o
0n
0m
0l
1V
1T
0U
1R
1S
1O
0Q
0R
0T
0V
#320000
0"
05
0M
0C
0N
#325000
1"
15
1M
1C
1N
1p
0O
1P
#330000
0"
05
0M
0C
0N
#335000
1"
15
1M
1C
1N
0p
1o
1O
#340000
0"
05
0M
0C
0N
#345000
1"
15
1M
1C
1N
1p
0O
0P
1Q
1R
#350000
0"
05
0M
0C
0N
#355000
1"
15
1M
1C
1N
0p
0o
1n
0R
0S
1O
0Q
1R
1S
1T
0T
#360000
0"
05
0M
0C
0N
#365000
1"
15
1M
1C
1N
1p
0O
1P
#370000
0"
05
0M
0C
0N
#375000
1"
15
1M
1C
1N
0p
1o
1O
#380000
0"
05
0M
0C
0N
#385000
1"
15
1M
1C
1N
1p
0O
0P
1Q
0R
0S
1T
#390000
0"
05
0M
0C
0N
#395000
1"
15
1M
1C
1N
0p
0o
0n
1m
0T
1U
1R
1S
1O
0Q
1W
0R
1T
0U
1V
0V
#400000
0"
05
0M
0C
0N
#405000
1"
15
1M
1C
1N
1p
0O
1P
0W
#410000
0"
05
0M
0C
0N
#415000
1"
15
1M
1C
1N
0p
1o
1O
#420000
0"
05
0M
0C
0N
#425000
1"
15
1M
1C
1N
1p
0O
0P
1Q
1R
#430000
0"
05
0M
0C
0N
#435000
1"
15
1M
1C
1N
0p
0o
1n
0R
0S
1O
0Q
1R
1S
0T
1U
1V
1T
0U
0V
#440000
0"
05
0M
0C
0N
#445000
1"
15
1M
1C
1N
1p
0O
1P
#450000
0"
05
0M
0C
0N
#455000
1"
15
1M
1C
1N
0p
1o
1O
#460000
0"
05
0M
0C
0N
#465000
1"
15
1M
1C
1N
1p
0O
0P
1Q
0R
0S
0T
1U
1V
#470000
0"
05
0M
0C
0N
#475000
1"
15
1M
1C
1N
0p
0o
0n
0m
1l
0V
1T
0U
1R
1S
1O
0Q
0R
0T
1V
#480000
0"
05
0M
0C
0N
#485000
1"
15
1M
1C
1N
1p
0O
1P
#490000
0"
05
0M
0C
0N
#495000
1"
15
1M
1C
1N
0p
1o
1O
#500000
0"
05
0M
0C
0N
#505000
1"
15
1M
1C
1N
1p
0O
0P
1Q
1R
#510000
0"
05
0M
0C
0N
#515000
1"
15
1M
1C
1N
0p
0o
1n
0R
0S
1O
0Q
1R
1S
1T
0T
#520000
0"
05
0M
0C
0N
#525000
1"
15
1M
1C
1N
1p
0O
1P
#530000
0"
05
0M
0C
0N
#535000
1"
15
1M
1C
1N
0p
1o
1O
#540000
0"
05
0M
0C
0N
#545000
1"
15
1M
1C
1N
1p
0O
0P
1Q
0R
0S
1T
#550000
0"
05
0M
0C
0N
#555000
1"
15
1M
1C
1N
0p
0o
0n
1m
0T
1U
1R
1S
1O
0Q
1W
1i
0R
1T
0U
0V
1V
#560000
0"
05
0M
0C
0N
#565000
1"
15
1M
1C
1N
1p
0O
1P
0W
0i
#570000
0"
05
0M
0C
0N
#575000
1"
15
1M
1C
1N
0p
1o
1O
#580000
0"
05
0M
0C
0N
#585000
1"
15
1M
1C
1N
1p
0O
0P
1Q
1R
#590000
0"
05
0M
0C
0N
#595000
1"
15
1M
1C
1N
0p
0o
1n
0R
0S
1O
0Q
1R
1S
0T
1U
0V
1T
0U
1V
#600000
0"
05
0M
0C
0N
#605000
1"
15
1M
1C
1N
1p
0O
1P
#610000
0"
05
0M
0C
0N
#615000
1"
15
1M
1C
1N
0p
1o
1O
#620000
0"
05
0M
0C
0N
#625000
1"
15
1M
1C
1N
1p
0O
0P
1Q
0R
0S
0T
1U
0V
#630000
0"
05
0M
0C
0N
#635000
1"
15
1M
1C
1N
0p
0o
0n
0m
0l
1V
1T
0U
1R
1S
1O
0Q
0R
0T
0V
#640000
0"
05
0M
0C
0N
#645000
1"
15
1M
1C
1N
1p
0O
1P
#650000
0"
05
0M
0C
0N
#655000
1"
15
1M
1C
1N
0p
1o
1O
#660000
0"
05
0M
0C
0N
#665000
1"
15
1M
1C
1N
1p
0O
0P
1Q
1R
#670000
0"
05
0M
0C
0N
#675000
1"
15
1M
1C
1N
0p
0o
1n
0R
0S
1O
0Q
1R
1S
1T
0T
#680000
0"
05
0M
0C
0N
#685000
1"
15
1M
1C
1N
1p
0O
1P
#690000
0"
05
0M
0C
0N
#695000
1"
15
1M
1C
1N
0p
1o
1O
#700000
0"
05
0M
0C
0N
#705000
1"
15
1M
1C
1N
1p
0O
0P
1Q
0R
0S
1T
#710000
0"
05
0M
0C
0N
#715000
1"
15
1M
1C
1N
0p
0o
0n
1m
0T
1U
1R
1S
1O
0Q
1W
0R
1T
0U
1V
0V
#720000
0"
05
0M
0C
0N
#725000
1"
15
1M
1C
1N
1p
0O
1P
0W
#730000
0"
05
0M
0C
0N
#735000
1"
15
1M
1C
1N
0p
1o
1O
#740000
0"
05
0M
0C
0N
#745000
1"
15
1M
1C
1N
1p
0O
0P
1Q
1R
#750000
0"
05
0M
0C
0N
#755000
1"
15
1M
1C
1N
0p
0o
1n
0R
0S
1O
0Q
1R
1S
0T
1U
1V
1T
0U
0V
#760000
0"
05
0M
0C
0N
#765000
1"
15
1M
1C
1N
1p
0O
1P
#770000
0"
05
0M
0C
0N
#775000
1"
15
1M
1C
1N
0p
1o
1O
#780000
0"
05
0M
0C
0N
#785000
1"
15
1M
1C
1N
1p
0O
0P
1Q
0R
0S
0T
1U
1V
#790000
0"
05
0M
0C
0N
#795000
1"
15
1M
1C
1N
0p
0o
0n
0m
1l
0V
1T
0U
1R
1S
1O
0Q
0R
0T
1V
#800000
0"
05
0M
0C
0N
#805000
1"
15
1M
1C
1N
1p
0O
1P
#810000
0"
05
0M
0C
0N
#815000
1"
15
1M
1C
1N
0p
1o
1O
#820000
0"
05
0M
0C
0N
#825000
1"
15
1M
1C
1N
1p
0O
0P
1Q
1R
#830000
0"
05
0M
0C
0N
#835000
1"
15
1M
1C
1N
0p
0o
1n
0R
0S
1O
0Q
1R
1S
1T
0T
#840000
0"
05
0M
0C
0N
#845000
1"
15
1M
1C
1N
1p
0O
1P
#850000
0"
05
0M
0C
0N
#855000
1"
15
1M
1C
1N
0p
1o
1O
#860000
0"
05
0M
0C
0N
#865000
1"
15
1M
1C
1N
1p
0O
0P
1Q
0R
0S
1T
#870000
0"
05
0M
0C
0N
#875000
1"
15
1M
1C
1N
0p
0o
0n
1m
0T
1U
1R
1S
1O
0Q
1W
1i
0R
1T
0U
0V
1V
#880000
0"
05
0M
0C
0N
#885000
1"
15
1M
1C
1N
1p
0O
1P
0W
0i
#890000
0"
05
0M
0C
0N
#895000
1"
15
1M
1C
1N
0p
1o
1O
#900000
0"
05
0M
0C
0N
#905000
1"
15
1M
1C
1N
1p
0O
0P
1Q
1R
#910000
0"
05
0M
0C
0N
#915000
1"
15
1M
1C
1N
0p
0o
1n
0R
0S
1O
0Q
1R
1S
0T
1U
0V
1T
0U
1V
#920000
0"
05
0M
0C
0N
#925000
1"
15
1M
1C
1N
1p
0O
1P
#930000
0"
05
0M
0C
0N
#935000
1"
15
1M
1C
1N
0p
1o
1O
#940000
0"
05
0M
0C
0N
#945000
1"
15
1M
1C
1N
1p
0O
0P
1Q
0R
0S
0T
1U
0V
#950000
0"
05
0M
0C
0N
#955000
1"
15
1M
1C
1N
0p
0o
0n
0m
0l
1V
1T
0U
1R
1S
1O
0Q
0R
0T
0V
#960000
0"
05
0M
0C
0N
#965000
1"
15
1M
1C
1N
1p
0O
1P
#970000
0"
05
0M
0C
0N
#975000
1"
15
1M
1C
1N
0p
1o
1O
#980000
0"
05
0M
0C
0N
#985000
1"
15
1M
1C
1N
1p
0O
0P
1Q
1R
#990000
0"
05
0M
0C
0N
#995000
1"
15
1M
1C
1N
0p
0o
1n
0R
0S
1O
0Q
1R
1S
1T
0T
