encoder/simulation/qsim/encoder.msim.vcd
$comment
	File created using the following command:
		vcd file encoder.msim.vcd -direction
$end
$date
	Sun Dec 06 19:03:28 2020
$end
$version
	ModelSim Version 2020.1
$end
$timescale
	1ps
$end

$scope module encoder_vhd_vec_tst $end
$var wire 1 ! a [15] $end
$var wire 1 " a [14] $end
$var wire 1 # a [13] $end
$var wire 1 $ a [12] $end
$var wire 1 % a [11] $end
$var wire 1 & a [10] $end
$var wire 1 ' a [9] $end
$var wire 1 ( a [8] $end
$var wire 1 ) a [7] $end
$var wire 1 * a [6] $end
$var wire 1 + a [5] $end
$var wire 1 , a [4] $end
$var wire 1 - a [3] $end
$var wire 1 . a [2] $end
$var wire 1 / a [1] $end
$var wire 1 0 a [0] $end
$var wire 1 1 x [7] $end
$var wire 1 2 x [6] $end
$var wire 1 3 x [5] $end
$var wire 1 4 x [4] $end
$var wire 1 5 x [3] $end
$var wire 1 6 x [2] $end
$var wire 1 7 x [1] $end
$var wire 1 8 x [0] $end

$scope module i1 $end
$var wire 1 9 gnd $end
$var wire 1 : vcc $end
$var wire 1 ; unknown $end
$var wire 1 < devoe $end
$var wire 1 = devclrn $end
$var wire 1 > devpor $end
$var wire 1 ? ww_devoe $end
$var wire 1 @ ww_devclrn $end
$var wire 1 A ww_devpor $end
$var wire 1 B ww_a [15] $end
$var wire 1 C ww_a [14] $end
$var wire 1 D ww_a [13] $end
$var wire 1 E ww_a [12] $end
$var wire 1 F ww_a [11] $end
$var wire 1 G ww_a [10] $end
$var wire 1 H ww_a [9] $end
$var wire 1 I ww_a [8] $end
$var wire 1 J ww_a [7] $end
$var wire 1 K ww_a [6] $end
$var wire 1 L ww_a [5] $end
$var wire 1 M ww_a [4] $end
$var wire 1 N ww_a [3] $end
$var wire 1 O ww_a [2] $end
$var wire 1 P ww_a [1] $end
$var wire 1 Q ww_a [0] $end
$var wire 1 R ww_x [7] $end
$var wire 1 S ww_x [6] $end
$var wire 1 T ww_x [5] $end
$var wire 1 U ww_x [4] $end
$var wire 1 V ww_x [3] $end
$var wire 1 W ww_x [2] $end
$var wire 1 X ww_x [1] $end
$var wire 1 Y ww_x [0] $end
$var wire 1 Z \x[0]~output_o\ $end
$var wire 1 [ \x[1]~output_o\ $end
$var wire 1 \ \x[2]~output_o\ $end
$var wire 1 ] \x[3]~output_o\ $end
$var wire 1 ^ \x[4]~output_o\ $end
$var wire 1 _ \x[5]~output_o\ $end
$var wire 1 ` \x[6]~output_o\ $end
$var wire 1 a \x[7]~output_o\ $end
$var wire 1 b \a[8]~input_o\ $end
$var wire 1 c \a[11]~input_o\ $end
$var wire 1 d \a[10]~input_o\ $end
$var wire 1 e \a[9]~input_o\ $end
$var wire 1 f \Z1|out0~1_combout\ $end
$var wire 1 g \a[7]~input_o\ $end
$var wire 1 h \a[5]~input_o\ $end
$var wire 1 i \a[15]~input_o\ $end
$var wire 1 j \a[12]~input_o\ $end
$var wire 1 k \a[3]~input_o\ $end
$var wire 1 l \Z1|out0~0_combout\ $end
$var wire 1 m \a[0]~input_o\ $end
$var wire 1 n \Z1|out0~2_combout\ $end
$var wire 1 o \a[6]~input_o\ $end
$var wire 1 p \E1|out0~0_combout\ $end
$var wire 1 q \a[13]~input_o\ $end
$var wire 1 r \a[1]~input_o\ $end
$var wire 1 s \E1|out0~1_combout\ $end
$var wire 1 t \a[4]~input_o\ $end
$var wire 1 u \V1|out0~0_combout\ $end
$var wire 1 v \a[2]~input_o\ $end
$var wire 1 w \H1|out0~0_combout\ $end
$var wire 1 x \N1|out0~0_combout\ $end
$var wire 1 y \R1|out0~0_combout\ $end
$var wire 1 z \a[14]~input_o\ $end
$var wire 1 { \B1|out0~0_combout\ $end
$var wire 1 | \R1|out0~1_combout\ $end
$var wire 1 } \N1|out0~1_combout\ $end
$var wire 1 ~ \L1|out0~0_combout\ $end
$var wire 1 !! \L1|out0~1_combout\ $end
$var wire 1 "! \D0|out0~0_combout\ $end
$var wire 1 #! \H1|out0~1_combout\ $end
$var wire 1 $! \E1|out0~2_combout\ $end
$var wire 1 %! \B1|out0~1_combout\ $end
$upscope $end
$upscope $end
$enddefinitions $end
#0
$dumpvars
09
1:
x;
1<
1=
1>
1?
1@
1A
1Z
0[
1\
0]
0^
1_
0`
0a
0b
1c
1d
1e
1f
0g
0h
1i
0j
1k
0l
0m
1n
0o
1p
0q
1r
0s
1t
0u
1v
0w
0x
1y
1z
1{
1|
0}
1~
0!!
1"!
1#!
0$!
0%!
1!
1"
0#
0$
1%
1&
1'
0(
0)
0*
0+
1,
1-
1.
1/
00
01
02
13
04
05
16
07
18
1B
1C
0D
0E
1F
1G
1H
0I
0J
0K
0L
1M
1N
1O
1P
0Q
0R
0S
1T
0U
0V
1W
0X
1Y
$end
#80000
0!
0"
1$
0%
0&
0'
1(
1*
1+
0,
0-
0/
10
1Q
0P
0N
0M
1L
1K
1I
0H
0G
0F
1E
0C
0B
0i
0z
1j
0c
0d
0e
1b
1o
1h
0t
0k
0r
1m
0n
1s
0|
1%!
0p
1}
0"!
1$!
0{
1u
0y
0#!
0s
0u
0$!
1u
1$!
1[
1`
1]
1a
0\
0Z
1X
1S
1V
1R
0W
0Y
0`
0[
0_
08
17
06
15
12
11
0S
0X
0T
1`
1[
07
03
02
1S
1X
17
12
#160000
1!
1"
1%
1'
0(
1,
1-
1/
00
0.
0Q
1P
0O
1N
1M
0I
1H
1F
1C
1B
1i
1z
1c
1e
0b
1t
1k
0v
1r
0m
1n
1s
1p
1|
1w
0}
0~
0f
0u
1y
0|
0n
1!!
1x
1#!
0s
1u
0$!
0u
1$!
1|
1}
0[
0]
1\
1Z
0X
0V
1W
1Y
0`
1[
1_
1^
0Z
0\
18
07
16
05
0S
1X
1T
1U
0Y
0W
1]
1\
1`
0[
08
17
06
14
13
02
1V
1W
1S
0X
07
16
15
12
#240000
0"
1(
10
1.
0+
1#
1)
1Q
1O
0L
1J
1I
1D
0C
0z
1q
1b
1g
0h
1v
1m
1u
0%!
1l
1~
0#!
1f
0$!
1s
1{
0|
1%!
0u
1$!
0!!
0`
0_
0a
1[
0S
0T
0R
1X
0^
1`
0[
1a
0\
17
03
02
01
0U
1S
0X
1R
0W
07
06
04
12
11
#320000
0(
0%
0$
0*
0K
0I
0F
0E
0j
0c
0b
0o
0p
0}
0$!
0{
0l
1#!
1n
1|
0%!
0s
1u
1$!
1_
0`
0]
1T
0S
0V
0a
1\
1Z
05
13
02
0R
1W
1Y
1`
1[
18
16
01
1S
1X
17
12
#400000
1%
1*
1+
0)
0!
0'
1L
1K
0J
0H
1F
0B
0i
1c
0e
0g
1o
1h
0#!
0n
1p
0x
1"!
0$!
1{
0u
1#!
1}
1s
1u
1$!
0[
0`
0Z
0_
0X
0S
0Y
0T
1]
1_
08
07
03
02
1V
1T
1`
1[
15
13
1S
1X
17
12
#480000
0*
0+
1)
1!
1'
00
0#
1&
0Q
0L
0K
1J
1H
1G
0D
1B
1i
0q
1d
1e
1g
0o
0h
0m
0w
0#!
0p
1x
0"!
0{
1!!
0s
0}
0u
0$!
1}
1s
0x
0|
0}
1u
1$!
0]
1^
0_
0V
1U
0T
1]
0`
0[
05
14
03
1V
0S
0X
1`
1[
0]
0\
07
15
02
1S
1X
0V
0W
17
06
05
12
#560000
1*
1+
0!
0'
10
0&
0%
1(
1"
0,
0-
0/
1Q
0P
0N
0M
1L
1K
1I
0H
0G
0F
1C
0B
0i
1z
0c
0d
0e
1b
1o
1h
0t
0k
0r
1m
1n
0s
1|
1%!
1#!
1p
1}
1"!
0$!
1{
1l
0u
0n
0|
0#!
1s
1u
1$!
0u
0$!
0[
0`
1]
1_
1a
1\
1Z
0X
0S
1V
1T
1R
1W
1Y
1`
1[
0_
0\
0Z
18
07
16
15
13
02
11
1S
1X
0T
0W
0Y
0`
0[
08
17
06
03
12
0S
0X
07
02
#640000
0*
0+
1!
1'
00
0"
1-
0)
0Q
1N
0L
0K
0J
1H
0C
1B
1i
0z
1e
0g
0o
0h
1k
0m
1w
1|
1#!
0f
1x
0~
0"!
1$!
0{
0!!
0l
1!!
0}
0x
0|
1}
0^
1`
1_
1\
0U
1S
1T
1W
0]
1^
16
04
13
12
0V
1U
1]
0\
05
14
1V
0W
06
15
#720000
1"
1)
1%
1,
1#
0.
0O
1M
1J
1F
1D
1C
1z
1q
1c
1g
1t
0v
1u
1n
0p
1"!
1f
0s
0}
0u
0$!
0n
0#!
0%!
1s
1u
1$!
0]
1Z
1[
0V
1Y
1X
0a
0_
0Z
0`
0[
18
17
05
0R
0T
0Y
0S
0X
1`
1[
08
07
03
02
01
1S
1X
17
12
#800000
0"
0,
0#
1.
1*
0!
0'
10
0-
0(
1Q
1O
0N
0M
1K
0I
0H
0D
0C
0B
0i
0z
0q
0e
0b
1o
0t
0k
1v
1m
1n
1|
0w
1x
0"!
0s
1{
0u
1u
0$!
1}
0x
0|
0}
0[
1\
1Z
0X
1W
1Y
1]
0`
1[
18
07
16
1V
0S
1X
0]
0\
17
15
02
0V
0W
06
05
#880000
1"
0.
1!
1'
00
1&
1/
0Q
1P
0O
1H
1G
1C
1B
1i
1z
1d
1e
0v
1r
0m
0n
1s
1%!
1"!
0!!
1l
0y
1|
1n
1#!
0%!
0u
1$!
0^
1a
0Z
0U
1R
0Y
1`
0[
0a
1_
1Z
1\
08
04
11
1S
0X
0R
1T
1Y
1W
18
07
16
13
12
01
#960000
0"
1.
0*
1-
0)
0%
1+
1$
1O
1N
1L
0K
0J
0F
1E
0C
0z
1j
0c
0g
0o
1h
1k
1v
1w
1%!
0|
0n
0f
0l
1x
0#!
1|
1}
0Z
0\
1a
0Y
0W
1R
0_
08
06
11
0T
1]
1\
03
1V
1W
16
15
